Lab1
================
Daniel Behar
2022-08-03

## Parte 1

Al haber unificado todas las columnas y filas necesarias, me quedó un
total de: 9 Columnas 2180 Filas

``` r
print(UNIF)
```

    ## # A tibble: 2,180 x 9
    ##    COD_VIAJE CLIENTE    UBICACION CANTIDAD PILOTO     Q CREDITO UNIDAD FECHA[,1]
    ##        <dbl> <chr>          <dbl>    <dbl> <chr>  <dbl>   <dbl> <chr>  <chr>    
    ##  1  10000001 EL PINCHE~     76002     1200 Ferna~ 300        30 Camio~ 01-2018  
    ##  2  10000002 TAQUERIA ~     76002     1433 Hecto~ 358.       90 Camio~ 01-2018  
    ##  3  10000003 TIENDA LA~     76002     1857 Pedro~ 464.       60 Camio~ 01-2018  
    ##  4  10000004 TAQUERIA ~     76002      339 Angel~  84.8      30 Panel  01-2018  
    ##  5  10000005 CHICHARRO~     76001     1644 Juan ~ 411        30 Camio~ 01-2018  
    ##  6  10000006 UBIQUO LA~     76001     1827 Luis ~ 457.       30 Camio~ 01-2018  
    ##  7  10000007 CHICHARRO~     76002     1947 Ismae~ 487.       90 Camio~ 01-2018  
    ##  8  10000008 TAQUERIA ~     76001     1716 Juan ~ 429        60 Camio~ 01-2018  
    ##  9  10000009 EL GALLO ~     76002     1601 Ismae~ 400.       30 Camio~ 01-2018  
    ## 10  10000010 CHICHARRO~     76002     1343 Ferna~ 336.       90 Camio~ 01-2018  
    ## # ... with 2,170 more rows
…
